%!PS-Adobe-2.0
%%Creator: c2ps version 4.0
%%Orientation: Portrait
%%Pages: (atend)
%%DocumentNeededFonts: Times-BoldItalic Times-Bold Courier Times-Roman  Courier-Bold Courier-Oblique Courier-Bold Courier-BoldOblique Helvetica-Oblique Bookman-LightItalic
%%DocumentMedia: Letter 612 792
%%EndComments


%%BeginProlog								
/reencdict 12 dict def /ReEncode { reencdict begin				
/newcodesandnames exch def /newfontname exch def /basefontname exch def	
/basefontdict basefontname findfont def /newfont basefontdict maxlength dict	
def basefontdict { exch dup /FID ne { dup /Encoding eq				
{ exch dup length array copy newfont 3 1 roll put }				
{ exch newfont 3 1 roll put } ifelse } { pop pop } ifelse } forall		
newfont /FontName newfontname put newcodesandnames aload pop   		
128 1 255 { newfont /Encoding get exch /.notdef put } for			
newcodesandnames length 2 idiv { newfont /Encoding get 3 1 roll put } repeat 	
newfontname newfont definefont pop end } def					
/isovec [									
8#200 /grave 8#201 /acute 8#202 /circumflex 8#203 /tilde			
8#204 /macron 8#205 /breve 8#206 /dotaccent 8#207 /dieresis			
8#210 /ring 8#211 /cedilla 8#212 /hungarumlaut 8#213 /ogonek 8#214 /caron	
8#220 /dotlessi 8#230 /oe 8#231 /OE  						
8#240 /space 8#241 /exclamdown 8#242 /cent 8#243 /sterling			
8#244 /currency 8#245 /yen 8#246 /brokenbar 8#247 /section 8#250 /dieresis	
8#251 /copyright 8#252 /ordfeminine 8#253 /guillemotleft 8#254 /logicalnot	
8#255 /endash 8#256 /registered 8#257 /macron 8#260 /degree 8#261 /plusminus	
8#262 /twosuperior 8#263 /threesuperior 8#264 /acute 8#265 /mu 8#266 /paragraph
8#267 /periodcentered 8#270 /cedilla 8#271 /onesuperior 8#272 /ordmasculine	
8#273 /guillemotright 8#274 /onequarter 8#275 /onehalf				
8#276 /threequarters 8#277 /questiondown 8#300 /Agrave 8#301 /Aacute		
8#302 /Acircumflex 8#303 /Atilde 8#304 /Adieresis 8#305 /Aring			
8#306 /AE 8#307 /Ccedilla 8#310 /Egrave 8#311 /Eacute				
8#312 /Ecircumflex 8#313 /Edieresis 8#314 /Igrave 8#315 /Iacute		
8#316 /Icircumflex 8#317 /Idieresis 8#320 /Eth 8#321 /Ntilde 8#322 /Ograve	
8#323 /Oacute 8#324 /Ocircumflex 8#325 /Otilde 8#326 /Odieresis 8#327 /multiply
8#330 /Oslash 8#331 /Ugrave 8#332 /Uacute 8#333 /Ucircumflex			
8#334 /Udieresis 8#335 /Yacute 8#336 /Thorn 8#337 /germandbls 8#340 /agrave	
8#341 /aacute 8#342 /acircumflex 8#343 /atilde 8#344 /adieresis 8#345 /aring	
8#346 /ae 8#347 /ccedilla 8#350 /egrave 8#351 /eacute				
8#352 /ecircumflex 8#353 /edieresis 8#354 /igrave 8#355 /iacute		
8#356 /icircumflex 8#357 /idieresis 8#360 /eth 8#361 /ntilde 8#362 /ograve	
8#363 /oacute 8#364 /ocircumflex 8#365 /otilde 8#366 /odieresis 8#367 /divide	
8#370 /oslash 8#371 /ugrave 8#372 /uacute 8#373 /ucircumflex			
8#374 /udieresis 8#375 /yacute 8#376 /thorn 8#377 /ydieresis] def		
%%EndProlog

/Courier /Courier-iso isovec ReEncode
/Courier-Oblique /Courier-Oblique-iso isovec ReEncode
/Helvetica-Oblique /Helvetica-Oblique-iso isovec ReEncode
/s {show} bind def /nl { 20 exch moveto } def
 /sf {setfont} bind def /cf {currentfont} bind def

/ver {
  gsave 0 setgray 575 822 moveto
  /Bookman-Light findfont 5 scalefont setfont
  (c2ps v4.0) dup stringwidth pop neg 0 rmoveto s
  grestore

} def
/fdf { /Courier-iso findfont 10.00 scalefont setfont } def
/fhd { /Times-Bold findfont 16 scalefont setfont } def
/fnu { /Times-Roman findfont 10.00 scalefont setfont } def
/sn { gsave fnu 0 setgray } def /n { s grestore 36.00 0 rmoveto } def
/fco { /Helvetica-Oblique-iso findfont 10.00 scalefont sf } def
/fke { /Courier-Bold findfont 10.00 scalefont sf } def
/ffu { /Bookman-LightItalic findfont 10.00 scalefont sf } def
/fty { /Courier-Bold findfont 10.00 scalefont sf } def
/fst { /Courier-Oblique-iso findfont 10.00 scalefont sf } def
/fpr { /Courier-BoldOblique findfont 10.00 scalefont sf } def


/DrawArrow { 
  gsave 0.6 setlinewidth
  newpath
    moveto 1 setgray -5 3 rlineto currentpoint stroke
    moveto 0.83 setgray 17 -3 rlineto currentpoint stroke
    moveto 1 setgray -17 -3 rlineto currentpoint stroke
    moveto 0.83 setgray 5 3 rlineto stroke
  closepath
  grestore
} def

/InFunction {
gsave 0 setgray 
dup length 0 eq
{ pop }
{ 385 812 DrawArrow
gsave
newpath 380 795 moveto 517 795 lineto 517 820 lineto 380 820 lineto closepath clip
/Times-Italic findfont 8 scalefont setfont
400 810 moveto s
grestore } ifelse
grestore
} def

/OutFunction {
gsave 0 setgray 

dup length 0 eq
{ pop }
{507 803 DrawArrow
gsave
newpath 380 795 moveto 517 795 lineto 517 820 lineto 380 820 lineto closepath clip
/Times-Italic findfont 8 scalefont setfont
dup stringwidth pop neg 500 add 801 moveto s
grestore } ifelse
grestore
} def


/FunctionBox {
  gsave
  100 10 475 782 FilledBox
  0 setgray
  /Times-BoldItalic findfont 8 scalefont setfont
  (Functions) dup stringwidth pop 2 div neg 525 add 784 moveto s

  /inds exch def
  475 773 moveto
  counttomark 2 div cvi
  {
    currentpoint exch pop 575 exch moveto
    gsave currentpoint newpath moveto 0 -3 rmoveto 0 inds 1.25 mul rlineto
    -100 0 rlineto 0 inds 1.25 mul neg rlineto closepath 0.95 setgray fill
    grestore
    /Times-Roman findfont inds scalefont setfont
    currentpoint exch pop 1 index stringwidth pop neg dup 575 add exch
    4 1 roll exch moveto -0.5 0 rmoveto s
    /Times-Italic findfont inds scalefont setfont
    gsave -4 add currentpoint exch pop 476 exch 
    newpath moveto
    0 -20 rlineto 100 add dup 0 rlineto 0 40 rlineto
    neg 0 rlineto 0 -20 rlineto closepath clip 0.5 0 rmoveto s
    grestore
    0 inds 1 add neg rmoveto
  } repeat
  grestore
  pop
} def


/FilledBox {
 gsave
  newpath
  moveto 2 copy
  0 exch rlineto
  0 rlineto
  2 copy
  neg 0 exch rlineto 
  pop
  currentpoint
  closepath
  0.95 setgray fill
 grestore
 gsave
  newpath
  moveto
  dup 0 exch rlineto
  1 1 rlineto
  2 add neg 0 exch rlineto
  2 add neg 0 rlineto
  1 1 rlineto
  closepath
  0.85 setgray fill
 grestore
} def

/Modified {
/Times-Bold findfont 24 scalefont setfont
(MODIFIED) dup stringwidth pop 2 div neg 297.5 add 797 moveto
currentpoint 1 setgray 0.5 -0.5 rmoveto 2 index s moveto
currentpoint 0.84 setgray -0.5 0.5 rmoveto 2 index s moveto 
0.95 setgray s 0 setgray

} def
/DrawFrame {
  gsave
0 setgray
  555 25 20 795 FilledBox
  /Times-BoldItalic findfont 16 scalefont setfont
  gsave newpath 20 795 moveto 230 795 lineto 230 820
  lineto 20 820 lineto closepath clip 30 800 moveto s 
  grestore
  Modified
  /Times-Bold findfont 9 scalefont setfont
dup stringwidth pop 2 div neg 297.5 add 800 moveto s
  grestore
} def
106 45 {dup mul exch dup mul add 1.0 exch sub} setscreen
/clp { newpath 20 820 moveto 577 820 lineto 577 20
lineto 20 20 lineto closepath clip  } def fdf

%%Page: 1 1

0.93 0.93 scale 31 8 translate
initclip (Sun Jan  3 21:51:36 1999) (gnome-hello-7-mdi.c)  DrawFrame gsave 0 setgray fhd 523 800 moveto (       1) s grestore
 clp
780.00 nl sn (    1) n
cf fco 0.75 setgray
(\/)s  currentpoint pop (*) s  pop ( -*- Mode: C; tab-width: 4; indent-tabs-mode: t; c-basic-offset: 4 -*- */) s
 sf 0 setgray
770.00 nl sn (    2) n
cf fco 0.75 setgray
(\/)s  currentpoint pop (*) s 760.00 nl sn (    3) n
() s
 dup 760.00 moveto (* gnome-hello-7-mdi.c) s
750.00 nl sn (    4) n
 dup 750.00 moveto (*) s
740.00 nl sn (    5) n
 dup 740.00 moveto (* Illustration of use of GnomeMDI interface using GnomeMDIGenericChild object.) s
730.00 nl sn (    6) n
 dup 730.00 moveto (* For an alternative example, showing how to subclass GnomeMDIChild instead of) s
720.00 nl sn (    7) n
 dup 720.00 moveto (* using GnomeMDIGenericChild, refer to either ghex or gtop source.) s
710.00 nl sn (    8) n
 dup 710.00 moveto (*) s
700.00 nl sn (    9) n
 dup 700.00 moveto (* Jaka Mocnik <jaka.mocnik@kiss.uni-lj.si>) s
690.00 nl sn (   10) n
 dup 690.00 moveto (* Martin Baulig <martin@home-of-linux.org>) s
680.00 nl sn (   11) n
 680.00 moveto (*/) s
 sf 0 setgray
670.00 nl sn (   12) n
660.00 nl sn (   13) n
cf fpr
(#include) s
sf
( <config.h>) s
650.00 nl sn (   14) n
cf fpr
(#include) s
sf
( <gnome.h>) s
640.00 nl sn (   15) n
630.00 nl sn (   16) n
cf fpr
(#include) s
sf
( <stdio.h>) s
620.00 nl sn (   17) n
610.00 nl sn (   18) n
cf fco 0.75 setgray
(\/)s  currentpoint pop (*) s ( undefining USE_TEMPLATES makes this app use custom-built ) s
600.00 nl sn (   19) n
 dup 600.00 moveto (menus instead of letting GnomeMDI build them from GnomeUIInfo) s
590.00 nl sn (   20) n
 dup 590.00 moveto (templates) s
580.00 nl sn (   21) n
 580.00 moveto (*/) s
 sf 0 setgray
570.00 nl sn (   22) n
cf fpr
(#define USE_TEMPLATES) s
sf
( YES!) s
560.00 nl sn (   23) n
cf fco 0.75 setgray
(\/)s  currentpoint pop (*) s  pop (#undef USE_TEMPLATES*/) s
 sf 0 setgray
550.00 nl sn (   24) n
540.00 nl sn (   25) n
() s
cf fty
(static) s
sf
( gboolean restarted= FALSE;) s
530.00 nl sn (   26) n
520.00 nl sn (   27) n
() s
cf fty
(static) s
sf
( ) s
cf fty
(struct) s
sf
( poptOption prog_options[] = ) s
510.00 nl sn (   28) n
({) s
500.00 nl sn (   29) n
(        POPT_AUTOHELP) s
490.00 nl sn (   30) n
(        {NULL, ) s
cf fst
('\\0') s
sf
(, 0, NULL, 0}) s
480.00 nl sn (   31) n
(};) s
470.00 nl sn (   32) n
460.00 nl sn (   33) n
() s
cf fty
(static) s
sf
( ) s
cf fty
(int) s
sf
( save_state \(GnomeClient *, gint, GnomeRestartStyle, gint,) s
450.00 nl sn (   34) n
(                                           GnomeInteractStyle, gint, gpointer\);) s
440.00 nl sn (   35) n
430.00 nl sn (   36) n
() s
cf fty
(static) s
sf
( ) s
cf fty
(void) s
sf
( add_cb\(GtkWidget *w\);) s
420.00 nl sn (   37) n
cf fty
(static) s
sf
( ) s
cf fty
(void) s
sf
( remove_cb\(GtkWidget *w\);) s
410.00 nl sn (   38) n
cf fty
(static) s
sf
( ) s
cf fty
(void) s
sf
( add_view_cb\(GtkWidget *w\);) s
400.00 nl sn (   39) n
cf fty
(static) s
sf
( ) s
cf fty
(void) s
sf
( remove_view_cb\(GtkWidget *w\);) s
390.00 nl sn (   40) n
cf fty
(static) s
sf
( ) s
cf fty
(void) s
sf
( quit_cb\(GtkWidget *w\);) s
380.00 nl sn (   41) n
cf fty
(static) s
sf
( ) s
cf fty
(void) s
sf
( about_cb\(GtkWidget *w\);) s
370.00 nl sn (   42) n
cf fty
(static) s
sf
( ) s
cf fty
(void) s
sf
( mode_top_cb\(GtkWidget *w\);) s
360.00 nl sn (   43) n
cf fty
(static) s
sf
( ) s
cf fty
(void) s
sf
( mode_book_cb\(GtkWidget *w\);) s
350.00 nl sn (   44) n
cf fty
(static) s
sf
( ) s
cf fty
(void) s
sf
( mode_modal_cb\(GtkWidget *w\);) s
340.00 nl sn (   45) n
cf fty
(static) s
sf
( ) s
cf fty
(void) s
sf
( inc_counter_cb\(GtkWidget *w, gpointer user_data\);) s
330.00 nl sn (   46) n
320.00 nl sn (   47) n
() s
cf fty
(static) s
sf
( ) s
cf fty
(void) s
sf
( app_created_handler\(GnomeMDI *, GnomeApp *\);) s
310.00 nl sn (   48) n
300.00 nl sn (   49) n
() s
cf fty
(static) s
sf
( gchar         *my_child_get_config_string\(GnomeMDIChild *, gpointer\);) s
290.00 nl sn (   50) n
cf fty
(static) s
sf
( GnomeMDIChild *my_child_new_from_config \() s
cf fty
(const) s
sf
( gchar *\);) s
280.00 nl sn (   51) n
cf fty
(static) s
sf
( GtkWidget     *my_child_set_label\(GnomeMDIChild *, GtkWidget *, gpointer\);) s
270.00 nl sn (   52) n
cf fty
(static) s
sf
( GtkWidget     *my_child_create_view\(GnomeMDIChild *, gpointer\);) s
260.00 nl sn (   53) n
250.00 nl sn (   54) n
cf fpr
(#ifdef USE_TEMPLATES) s
sf
240.00 nl sn (   55) n
cf fco 0.75 setgray
(\/)s  currentpoint pop (*) s  pop ( the template for MDI menus */) s
 sf 0 setgray
230.00 nl sn (   56) n
(GnomeUIInfo file_menu[] = {) s
220.00 nl sn (   57) n
(        { GNOME_APP_UI_ITEM, ) s
cf fst
("Add Child") s
sf
(, NULL, add_cb, NULL, NULL,) s
210.00 nl sn (   58) n
(          GNOME_APP_PIXMAP_NONE, NULL, 0, 0, NULL },) s
200.00 nl sn (   59) n
(        { GNOME_APP_UI_ITEM, ) s
cf fst
("Remove Child") s
sf
(, NULL, remove_cb, NULL, NULL,) s
190.00 nl sn (   60) n
(          GNOME_APP_PIXMAP_NONE, NULL, 0, 0, NULL },) s
180.00 nl sn (   61) n
(        { GNOME_APP_UI_SEPARATOR, NULL, NULL, NULL, NULL, NULL,) s
170.00 nl sn (   62) n
(          GNOME_APP_PIXMAP_NONE, NULL, 0, 0, NULL },) s
160.00 nl sn (   63) n
(        { GNOME_APP_UI_ITEM, ) s
cf fst
("Exit") s
sf
(, NULL, quit_cb, NULL, NULL,) s
150.00 nl sn (   64) n
(          GNOME_APP_PIXMAP_STOCK, GNOME_STOCK_MENU_EXIT, 0, 0, NULL },) s
140.00 nl sn (   65) n
(        { GNOME_APP_UI_ENDOFINFO }) s
130.00 nl sn (   66) n
(};) s
120.00 nl sn (   67) n
110.00 nl sn (   68) n
(GnomeUIInfo mode_menu[] = {) s
100.00 nl sn (   69) n
(        { GNOME_APP_UI_ITEM, ) s
cf fst
("Notebook") s
sf
(, NULL, mode_book_cb, NULL, NULL,) s
90.00 nl sn (   70) n
(          GNOME_APP_PIXMAP_NONE, NULL, 0, 0, NULL },) s
80.00 nl sn (   71) n
(        { GNOME_APP_UI_ITEM, ) s
cf fst
("Toplevel") s
sf
(, NULL, mode_top_cb, NULL, NULL,) s
70.00 nl sn (   72) n
(          GNOME_APP_PIXMAP_NONE, NULL, 0, 0, NULL },) s
60.00 nl sn (   73) n
(        { GNOME_APP_UI_ITEM, ) s
cf fst
("Modal") s
sf
(, NULL, mode_modal_cb, NULL, NULL,) s
50.00 nl sn (   74) n
(          GNOME_APP_PIXMAP_NONE, NULL, 0, 0, NULL },) s
40.00 nl sn (   75) n
(        { GNOME_APP_UI_ENDOFINFO }) s

 showpage

%%Page: 2 2

0.93 0.93 scale 31 8 translate
initclip (Sun Jan  3 21:51:36 1999) (gnome-hello-7-mdi.c)  DrawFrame gsave 0 setgray fhd 523 800 moveto (       2) s grestore
 clp
780.00 nl sn (   76) n
(};) s
770.00 nl sn (   77) n
760.00 nl sn (   78) n
(GnomeUIInfo help_menu[] = {) s
750.00 nl sn (   79) n
(        { GNOME_APP_UI_ITEM, ) s
cf fst
("About...") s
sf
(, NULL, about_cb, NULL, NULL,) s
740.00 nl sn (   80) n
(          GNOME_APP_PIXMAP_STOCK, GNOME_STOCK_MENU_ABOUT, 0, 0, NULL },) s
730.00 nl sn (   81) n
(        { GNOME_APP_UI_ENDOFINFO }) s
720.00 nl sn (   82) n
(};) s
710.00 nl sn (   83) n
700.00 nl sn (   84) n
(GnomeUIInfo empty_menu[] = {) s
690.00 nl sn (   85) n
(        { GNOME_APP_UI_ENDOFINFO }) s
680.00 nl sn (   86) n
(};) s
670.00 nl sn (   87) n
660.00 nl sn (   88) n
(GnomeUIInfo main_menu[] = {) s
650.00 nl sn (   89) n
(        { GNOME_APP_UI_SUBTREE, \() s
cf fst
("File") s
sf
(\), NULL, file_menu, NULL, NULL,) s
640.00 nl sn (   90) n
(          GNOME_APP_PIXMAP_NONE, NULL, 0, 0, NULL },) s
630.00 nl sn (   91) n
(        { GNOME_APP_UI_SUBTREE, \() s
cf fst
("Children") s
sf
(\), NULL, empty_menu, NULL, NULL,) s
620.00 nl sn (   92) n
(          GNOME_APP_PIXMAP_NONE, NULL, 0, 0, NULL },) s
610.00 nl sn (   93) n
(        { GNOME_APP_UI_SUBTREE, \() s
cf fst
("MDI Mode") s
sf
(\), NULL, mode_menu, NULL, NULL,) s
600.00 nl sn (   94) n
(          GNOME_APP_PIXMAP_NONE, NULL, 0, 0, NULL },) s
590.00 nl sn (   95) n
(        { GNOME_APP_UI_SUBTREE, \() s
cf fst
("Help") s
sf
(\), NULL, help_menu, NULL, NULL,) s
580.00 nl sn (   96) n
(          GNOME_APP_PIXMAP_NONE, NULL, 0, 0, NULL },) s
570.00 nl sn (   97) n
(        { GNOME_APP_UI_ENDOFINFO }) s
560.00 nl sn (   98) n
(};) s
550.00 nl sn (   99) n
cf fpr
(#endif) s
sf
( ) s
cf fco 0.75 setgray
(\/)s  currentpoint pop (*) s  pop ( USE_TEMPLATES */) s
 sf 0 setgray
540.00 nl sn (  100) n
530.00 nl sn (  101) n
(GnomeMDI *mdi;) s
520.00 nl sn (  102) n
510.00 nl sn (  103) n
(GnomeClient *client;) s
500.00 nl sn (  104) n
490.00 nl sn (  105) n
cf fpr
(#ifdef USE_TEMPLATES) s
sf
480.00 nl sn (  106) n
cf fco 0.75 setgray
(\/)s  currentpoint pop (*) s  pop ( the template for child-specific menus */) s
 sf 0 setgray
470.00 nl sn (  107) n
(GnomeUIInfo child_menu[] = {) s
460.00 nl sn (  108) n
(        { GNOME_APP_UI_ITEM, ) s
cf fst
("Add View") s
sf
(, NULL, add_view_cb, NULL, NULL,) s
450.00 nl sn (  109) n
(          GNOME_APP_PIXMAP_NONE, NULL, 0, 0, NULL },) s
440.00 nl sn (  110) n
(        { GNOME_APP_UI_ITEM, ) s
cf fst
("Remove View") s
sf
(, NULL, remove_view_cb, NULL, NULL,) s
430.00 nl sn (  111) n
(          GNOME_APP_PIXMAP_NONE, NULL, 0, 0, NULL },) s
420.00 nl sn (  112) n
(        { GNOME_APP_UI_SEPARATOR },) s
410.00 nl sn (  113) n
(        { GNOME_APP_UI_ITEM, ) s
cf fst
("Increase Counter") s
sf
(, NULL, inc_counter_cb, NULL, NULL,) s
400.00 nl sn (  114) n
(          GNOME_APP_PIXMAP_NONE, NULL, 0, 0, NULL },    ) s
390.00 nl sn (  115) n
(        { GNOME_APP_UI_ENDOFINFO }) s
380.00 nl sn (  116) n
(};) s
370.00 nl sn (  117) n
360.00 nl sn (  118) n
(GnomeUIInfo main_child_menu[] = {) s
350.00 nl sn (  119) n
(        { GNOME_APP_UI_SUBTREE, \() s
cf fst
("Child") s
sf
(\), NULL, child_menu, NULL, NULL,) s
340.00 nl sn (  120) n
(          GNOME_APP_PIXMAP_NONE, NULL, 0, 0, NULL },) s
330.00 nl sn (  121) n
(        { GNOME_APP_UI_ENDOFINFO }) s
320.00 nl sn (  122) n
(};) s
310.00 nl sn (  123) n
cf fpr
(#endif) s
sf
( ) s
cf fco 0.75 setgray
(\/)s  currentpoint pop (*) s  pop ( USE_TEMPLATES */) s
 sf 0 setgray
300.00 nl sn (  124) n
290.00 nl sn (  125) n
() s
cf fty
(static) s
sf
( GnomeUIInfo toolbar_info[5] = {) s
280.00 nl sn (  126) n
(        { GNOME_APP_UI_ITEM, ) s
cf fst
("New") s
sf
(, ) s
cf fst
("Create a new file") s
sf
(, NULL, NULL, NULL,) s
270.00 nl sn (  127) n
(      GNOME_APP_PIXMAP_STOCK, GNOME_STOCK_PIXMAP_NEW, 0, 0, NULL },) s
260.00 nl sn (  128) n
(    { GNOME_APP_UI_ITEM, ) s
cf fst
("Open") s
sf
(, ) s
cf fst
("Open an existing file") s
sf
(, NULL, NULL, NULL,) s
250.00 nl sn (  129) n
(      GNOME_APP_PIXMAP_STOCK, GNOME_STOCK_PIXMAP_OPEN, 0, 0, NULL },) s
240.00 nl sn (  130) n
(    { GNOME_APP_UI_ITEM, ) s
cf fst
("Save") s
sf
(, ) s
cf fst
("Save the current file") s
sf
(, NULL, NULL, NULL,) s
230.00 nl sn (  131) n
(      GNOME_APP_PIXMAP_STOCK, GNOME_STOCK_PIXMAP_SAVE, 0, 0, NULL },) s
220.00 nl sn (  132) n
(    { GNOME_APP_UI_ITEM, ) s
cf fst
("Save as") s
sf
(, ) s
cf fst
("Save the current file with a new name") s
sf
(, NULL, NU) s
210.00 nl 36.00 0 rmoveto
(LL, NULL,) s
200.00 nl sn (  133) n
(      GNOME_APP_PIXMAP_STOCK, GNOME_STOCK_PIXMAP_SAVE_AS, 0, 0, NULL },) s
190.00 nl sn (  134) n
(    GNOMEUIINFO_END) s
180.00 nl sn (  135) n
(};) s
170.00 nl sn (  136) n
160.00 nl sn (  137) n
cf fco 0.75 setgray
(\/)s  currentpoint pop (*) s 150.00 nl sn (  138) n
() s
 dup 150.00 moveto (* create_view signal handler: creates any GtkWidget to be used as a view) s
140.00 nl sn (  139) n
 dup 140.00 moveto (* of the child) s
130.00 nl sn (  140) n
 130.00 moveto (*/) s
 sf 0 setgray
120.00 nl sn (  141) n
() s
cf fty
(static) s
sf
( GtkWidget *) s
cf ffu
gsave 0.50 -2.00 rmoveto (my_child_create_view) stringwidth pop 0 currentpoint newpath moveto rlineto closepath 0.01 setlinewidth stroke grestore
(my_child_create_view) s
sf
(\(GnomeMDIChild *child, gpointer data\) {) s
110.00 nl sn (  142) n
(        GtkWidget *new_view;) s
100.00 nl sn (  143) n
(        gchar label[256];) s
90.00 nl sn (  144) n
(        gint counter;) s
80.00 nl sn (  145) n
70.00 nl sn (  146) n
(        sprintf\(label, ) s
cf fst
("Child %d") s
sf
(,) s
60.00 nl sn (  147) n
(                        GPOINTER_TO_INT \(gtk_object_get_user_data\(GTK_OBJECT\(child\)\)\)) s
50.00 nl 36.00 0 rmoveto
(\);) s
40.00 nl sn (  148) n

mark
(my_child_create_view) (2:141)
8.00
FunctionBox

(my_child_create_view) OutFunction

 showpage

%%Page: 3 3

0.93 0.93 scale 31 8 translate
initclip (Sun Jan  3 21:51:36 1999) (gnome-hello-7-mdi.c)  DrawFrame gsave 0 setgray fhd 523 800 moveto (       3) s grestore
(my_child_create_view) InFunction clp
780.00 nl sn (  149) n
(        new_view = gtk_label_new\(label\);) s
770.00 nl sn (  150) n
760.00 nl sn (  151) n
(        ) s
cf fke
(return) s
sf
( new_view;) s
750.00 nl sn (  152) n
(}) s
740.00 nl sn (  153) n
730.00 nl sn (  154) n
cf fco 0.75 setgray
(\/)s  currentpoint pop (*) s 720.00 nl sn (  155) n
() s
 dup 720.00 moveto (* create config string for this child) s
710.00 nl sn (  156) n
 710.00 moveto (*/) s
 sf 0 setgray
700.00 nl sn (  157) n
() s
cf fty
(static) s
sf
( gchar *) s
cf ffu
gsave 0.50 -2.00 rmoveto (my_child_get_config_string) stringwidth pop 0 currentpoint newpath moveto rlineto closepath 0.01 setlinewidth stroke grestore
(my_child_get_config_string) s
sf
(\(GnomeMDIChild *child, gpointer data\) {) s
690.00 nl sn (  158) n
(        ) s
cf fke
(return) s
sf
( g_strdup_printf \() s
cf fst
("%d") s
sf
(, GPOINTER_TO_INT \(gtk_object_get_user_data\(GTK_O) s
680.00 nl 36.00 0 rmoveto
(BJECT\(child\)\)\)\);) s
670.00 nl sn (  159) n
(}) s
660.00 nl sn (  160) n
650.00 nl sn (  161) n
() s
cf fty
(static) s
sf
( GtkWidget *) s
cf ffu
gsave 0.50 -2.00 rmoveto (my_child_set_label) stringwidth pop 0 currentpoint newpath moveto rlineto closepath 0.01 setlinewidth stroke grestore
(my_child_set_label) s
sf
(\(GnomeMDIChild *child,) s
640.00 nl sn (  162) n
(                                                                         GtkWidget *o) s
630.00 nl 36.00 0 rmoveto
(ld_label,) s
620.00 nl sn (  163) n
(                                                                         gpointer dat) s
610.00 nl 36.00 0 rmoveto
(a\) {) s
600.00 nl sn (  164) n
(        GtkWidget *hbox, *pixmap, *label;) s
590.00 nl sn (  165) n
(        ) s
cf fke
(if) s
sf
(\(old_label == NULL\) {) s
580.00 nl sn (  166) n
(                ) s
cf fco 0.75 setgray
(\/)s  currentpoint pop (*) s  pop ( if old_label is NULL, we have to create a new label */) s
 sf 0 setgray
570.00 nl sn (  167) n
(                hbox = gtk_hbox_new\(FALSE, 0\);) s
560.00 nl sn (  168) n
(                label = gtk_label_new\(child->name\);) s
550.00 nl sn (  169) n
(                gtk_widget_show\(label\);) s
540.00 nl sn (  170) n
(                pixmap = gnome_stock_new_with_icon\(GNOME_STOCK_MENU_TRASH_FULL\);) s
530.00 nl sn (  171) n
(                gtk_widget_show\(pixmap\);) s
520.00 nl sn (  172) n
(                gtk_box_pack_start\(GTK_BOX\(hbox\), pixmap, FALSE, FALSE, 2\);) s
510.00 nl sn (  173) n
(                gtk_box_pack_start\(GTK_BOX\(hbox\), label, FALSE, FALSE, 2\);) s
500.00 nl sn (  174) n
(        }) s
490.00 nl sn (  175) n
(        ) s
cf fke
(else) s
sf
( {) s
480.00 nl sn (  176) n
(                hbox = old_label;) s
470.00 nl sn (  177) n
(                ) s
cf fco 0.75 setgray
(\/)s  currentpoint pop (*) s  pop ( old_label is a hbox we created once */) s
 sf 0 setgray
460.00 nl sn (  178) n
(                label = GTK_WIDGET\(g_list_next\(gtk_container_children\(GTK_CONTAINER\(o) s
450.00 nl 36.00 0 rmoveto
(ld_label\)\)\)->data\);) s
440.00 nl sn (  179) n
(                ) s
cf fke
(if) s
sf
(\(label\)) s
430.00 nl sn (  180) n
(                        gtk_label_set_text\(GTK_LABEL\(label\), child->name\);) s
420.00 nl sn (  181) n
(        }) s
410.00 nl sn (  182) n
400.00 nl sn (  183) n
(        ) s
cf fke
(return) s
sf
( hbox;) s
390.00 nl sn (  184) n
(}) s
380.00 nl sn (  185) n
370.00 nl sn (  186) n
cf fpr
(#ifndef USE_TEMPLATES) s
sf
360.00 nl sn (  187) n
cf fco 0.75 setgray
(\/)s  currentpoint pop (*) s  pop ( if we want to use custom-built menus for our child */) s
 sf 0 setgray
350.00 nl sn (  188) n
() s
cf fty
(static) s
sf
( GList *) s
cf ffu
gsave 0.50 -2.00 rmoveto (my_child_create_menus) stringwidth pop 0 currentpoint newpath moveto rlineto closepath 0.01 setlinewidth stroke grestore
(my_child_create_menus) s
sf
(\(GnomeMDIChild *child, GtkWidget *view, gpointer d) s
340.00 nl 36.00 0 rmoveto
(ata\) {) s
330.00 nl sn (  189) n
(        GList *menu_list;) s
320.00 nl sn (  190) n
(        GtkWidget *menu, *w;) s
310.00 nl sn (  191) n
300.00 nl sn (  192) n
(        menu_list = NULL;) s
290.00 nl sn (  193) n
280.00 nl sn (  194) n
(        ) s
cf fco 0.75 setgray
(\/)s  currentpoint pop (*) s  pop ( the Child menu */) s
 sf 0 setgray
270.00 nl sn (  195) n
(        menu = gtk_menu_new\(\);) s
260.00 nl sn (  196) n
250.00 nl sn (  197) n
(        w = gtk_menu_item_new_with_label\(_\() s
cf fst
("Add View") s
sf
(\)\);) s
240.00 nl sn (  198) n
(        gtk_signal_connect\(GTK_OBJECT\(w\), ) s
cf fst
("activate") s
sf
(,) s
230.00 nl sn (  199) n
(                                           GTK_SIGNAL_FUNC\(add_view_cb\), child\);) s
220.00 nl sn (  200) n
(        gtk_widget_show\(w\);) s
210.00 nl sn (  201) n
(        gtk_menu_append\(GTK_MENU\(menu\), w\);) s
200.00 nl sn (  202) n
(        w = gtk_menu_item_new_with_label\(_\() s
cf fst
("Remove View") s
sf
(\)\);) s
190.00 nl sn (  203) n
(        gtk_signal_connect\(GTK_OBJECT\(w\), ) s
cf fst
("activate") s
sf
(,) s
180.00 nl sn (  204) n
(                                           GTK_SIGNAL_FUNC\(remove_view_cb\), child\);) s
170.00 nl sn (  205) n
(        gtk_widget_show\(w\);) s
160.00 nl sn (  206) n
(        gtk_menu_append\(GTK_MENU\(menu\), w\);) s
150.00 nl sn (  207) n
(        w = gtk_menu_item_new\(\);) s
140.00 nl sn (  208) n
(        gtk_widget_show\(w\);) s
130.00 nl sn (  209) n
(        gtk_menu_append\(GTK_MENU\(menu\), w\);     ) s
120.00 nl sn (  210) n
(        w = gtk_menu_item_new_with_label\(_\() s
cf fst
("Increase Counter") s
sf
(\)\);) s
110.00 nl sn (  211) n
(        gtk_signal_connect\(GTK_OBJECT\(w\), ) s
cf fst
("activate") s
sf
(,) s
100.00 nl sn (  212) n
(                                           GTK_SIGNAL_FUNC\(inc_counter_cb\), child\);) s
90.00 nl sn (  213) n
(        gtk_widget_show\(w\);) s
80.00 nl sn (  214) n
(        gtk_menu_append\(GTK_MENU\(menu\), w\);) s
70.00 nl sn (  215) n
60.00 nl sn (  216) n
(        w = gtk_menu_item_new_with_label\(_\() s
cf fst
("Child") s
sf
(\)\);) s
50.00 nl sn (  217) n
(        gtk_widget_show\(w\);) s
40.00 nl sn (  218) n
(        gtk_menu_item_set_submenu\(GTK_MENU_ITEM\(w\), menu\);) s

mark
(my_child_set_label) (3:161)
(my_child_get_config_string) (3:157)
(my_child_create_view) (2:141)
(my_child_create_menus) (3:188)
8.00
FunctionBox

(my_child_create_menus) OutFunction

 showpage

%%Page: 4 4

0.93 0.93 scale 31 8 translate
initclip (Sun Jan  3 21:51:36 1999) (gnome-hello-7-mdi.c)  DrawFrame gsave 0 setgray fhd 523 800 moveto (       4) s grestore
(my_child_create_menus) InFunction clp
780.00 nl sn (  219) n
(        menu_list = g_list_append\(menu_list, w\);) s
770.00 nl sn (  220) n
760.00 nl sn (  221) n
(        ) s
cf fke
(return) s
sf
( menu_list;) s
750.00 nl sn (  222) n
(}  ) s
740.00 nl sn (  223) n
cf fpr
(#endif) s
sf
730.00 nl sn (  224) n
720.00 nl sn (  225) n
() s
cf fty
(static) s
sf
( GnomeMDIChild *) s
cf ffu
gsave 0.50 -2.00 rmoveto (my_child_new_from_config) stringwidth pop 0 currentpoint newpath moveto rlineto closepath 0.01 setlinewidth stroke grestore
(my_child_new_from_config) s
sf
( \() s
cf fty
(const) s
sf
( gchar *string\) {) s
710.00 nl sn (  226) n
(        GnomeMDIGenericChild *child;) s
700.00 nl sn (  227) n
(        gchar *name;) s
690.00 nl sn (  228) n
(        gint c;) s
680.00 nl sn (  229) n
(        ) s
670.00 nl sn (  230) n
(        ) s
cf fke
(if) s
sf
( \(sscanf \(string, ) s
cf fst
("%d") s
sf
(, &c\) != 1\)) s
660.00 nl sn (  231) n
(                ) s
cf fke
(return) s
sf
( NULL;) s
650.00 nl sn (  232) n
(        ) s
640.00 nl sn (  233) n
(        name = g_strdup_printf\() s
cf fst
("Child %d") s
sf
(, c\);) s
630.00 nl sn (  234) n
620.00 nl sn (  235) n
(        ) s
cf fke
(if) s
sf
(\(\(child = gnome_mdi_generic_child_new\(name\)\) != NULL\) {) s
610.00 nl sn (  236) n
(                gnome_mdi_generic_child_set_view_creator\(child, my_child_create_view,) s
600.00 nl 36.00 0 rmoveto
( NULL\);) s
590.00 nl sn (  237) n
cf fpr
(#ifdef USE_TEMPLATES) s
sf
580.00 nl sn (  238) n
(                gnome_mdi_child_set_menu_template\(GNOME_MDI_CHILD\(child\), main_child_) s
570.00 nl 36.00 0 rmoveto
(menu\);) s
560.00 nl sn (  239) n
cf fpr
(#else) s
sf
550.00 nl sn (  240) n
(                gnome_mdi_generic_child_set_menu_creator\(child, my_child_create_menus) s
540.00 nl 36.00 0 rmoveto
(, NULL\);) s
530.00 nl sn (  241) n
cf fpr
(#endif) s
sf
( ) s
cf fco 0.75 setgray
(\/)s  currentpoint pop (*) s  pop ( USE_TEMPLATES */) s
 sf 0 setgray
520.00 nl sn (  242) n
(                gnome_mdi_generic_child_set_config_func\(child, my_child_get_config_st) s
510.00 nl 36.00 0 rmoveto
(ring, NULL\);) s
500.00 nl sn (  243) n
(                gnome_mdi_generic_child_set_label_func\(child, my_child_set_label, NUL) s
490.00 nl 36.00 0 rmoveto
(L\);) s
480.00 nl sn (  244) n
470.00 nl sn (  245) n
(                gtk_object_set_user_data\(GTK_OBJECT\(child\), GINT_TO_POINTER\(c\)\);) s
460.00 nl sn (  246) n
(        }) s
450.00 nl sn (  247) n
440.00 nl sn (  248) n
(        ) s
cf fke
(return) s
sf
( GNOME_MDI_CHILD \(child\);) s
430.00 nl sn (  249) n
(}) s
420.00 nl sn (  250) n
410.00 nl sn (  251) n
() s
cf fty
(static) s
sf
( ) s
cf fty
(void) s
sf
( ) s
cf ffu
gsave 0.50 -2.00 rmoveto (quit_cb) stringwidth pop 0 currentpoint newpath moveto rlineto closepath 0.01 setlinewidth stroke grestore
(quit_cb) s
sf
( \(GtkWidget *widget\) {) s
400.00 nl sn (  252) n
(        ) s
cf fco 0.75 setgray
(\/)s  currentpoint pop (*) s ( when the user wants to quit we try to remove all children and if we) s
390.00 nl sn (  253) n
 dup 390.00 moveto (succeed destroy the MDI. if TRUE was passed as the second \(force\)) s
380.00 nl sn (  254) n
 dup 380.00 moveto (argument, remove_child signal wouldn't be emmited.) s
370.00 nl sn (  255) n
 370.00 moveto (*/) s
 sf 0 setgray
360.00 nl sn (  256) n
(        ) s
cf fke
(if) s
sf
(\(gnome_mdi_remove_all\(mdi, FALSE\)\)) s
350.00 nl sn (  257) n
(                gtk_object_destroy\(GTK_OBJECT\(mdi\)\);) s
340.00 nl sn (  258) n
(}) s
330.00 nl sn (  259) n
320.00 nl sn (  260) n
() s
cf fty
(static) s
sf
( ) s
cf fty
(void) s
sf
( ) s
cf ffu
gsave 0.50 -2.00 rmoveto (cleanup_cb) stringwidth pop 0 currentpoint newpath moveto rlineto closepath 0.01 setlinewidth stroke grestore
(cleanup_cb) s
sf
(\(GnomeMDI *mdi\) {) s
310.00 nl sn (  261) n
(        ) s
cf fco 0.75 setgray
(\/)s  currentpoint pop (*) s ( on destruction of GnomeMDI we call gtk_main_quit\(\), since we have opened) s
300.00 nl sn (  262) n
 dup 300.00 moveto (no windows on our own and therefore our GUI is gone.) s
290.00 nl sn (  263) n
 290.00 moveto (*/) s
 sf 0 setgray
280.00 nl sn (  264) n
(        gtk_main_quit\(\);) s
270.00 nl sn (  265) n
(}) s
260.00 nl sn (  266) n
250.00 nl sn (  267) n
() s
cf fty
(static) s
sf
( ) s
cf fty
(void) s
sf
( ) s
cf ffu
gsave 0.50 -2.00 rmoveto (add_view_cb) stringwidth pop 0 currentpoint newpath moveto rlineto closepath 0.01 setlinewidth stroke grestore
(add_view_cb) s
sf
(\(GtkWidget *w\) {) s
240.00 nl sn (  268) n
(        ) s
cf fco 0.75 setgray
(\/)s  currentpoint pop (*) s ( our child-menu-item activate signal handler also gets the pointer to) s
230.00 nl sn (  269) n
 dup 230.00 moveto (the child that this menu item belongs to as the second argument) s
220.00 nl sn (  270) n
 220.00 moveto (*/) s
 sf 0 setgray
210.00 nl sn (  271) n
(        GnomeMDIChild *child;) s
200.00 nl sn (  272) n
190.00 nl sn (  273) n
(        ) s
cf fke
(if) s
sf
(\(mdi->active_view\) {) s
180.00 nl sn (  274) n
(                child = gnome_mdi_get_child_from_view\(mdi->active_view\);) s
170.00 nl sn (  275) n
(                gnome_mdi_add_view\(mdi, child\);) s
160.00 nl sn (  276) n
(        }) s
150.00 nl sn (  277) n
(}) s
140.00 nl sn (  278) n
130.00 nl sn (  279) n
() s
cf fty
(static) s
sf
( ) s
cf fty
(void) s
sf
( ) s
cf ffu
gsave 0.50 -2.00 rmoveto (remove_view_cb) stringwidth pop 0 currentpoint newpath moveto rlineto closepath 0.01 setlinewidth stroke grestore
(remove_view_cb) s
sf
(\(GtkWidget *w\) {) s
120.00 nl sn (  280) n
(        ) s
cf fco 0.75 setgray
(\/)s  currentpoint pop (*) s ( mdi->active_view holds the pointer to the view that this action) s
110.00 nl sn (  281) n
 dup 110.00 moveto (applies to) s
100.00 nl sn (  282) n
 100.00 moveto (*/) s
 sf 0 setgray
90.00 nl sn (  283) n
(        ) s
cf fke
(if) s
sf
(\(mdi->active_view\)) s
80.00 nl sn (  284) n
(                gnome_mdi_remove_view\(mdi, mdi->active_view, FALSE\);) s
70.00 nl sn (  285) n
(}) s
60.00 nl sn (  286) n
50.00 nl sn (  287) n
() s
cf fty
(static) s
sf
( ) s
cf fty
(void) s
sf
( ) s
cf ffu
gsave 0.50 -2.00 rmoveto (remove_cb) stringwidth pop 0 currentpoint newpath moveto rlineto closepath 0.01 setlinewidth stroke grestore
(remove_cb) s
sf
(\(GtkWidget *w\) {) s
40.00 nl sn (  288) n
(        ) s
cf fco 0.75 setgray
(\/)s  currentpoint pop (*) s ( mdi->active_child holds the pointer to the child that this action) s

mark
(remove_view_cb) (4:279)
(remove_cb) (4:287)
(quit_cb) (4:251)
(my_child_set_label) (3:161)
(my_child_new_from_config) (4:225)
(my_child_get_config_string) (3:157)
(my_child_create_view) (2:141)
(my_child_create_menus) (3:188)
(cleanup_cb) (4:260)
(add_view_cb) (4:267)
8.00
FunctionBox

(remove_cb) OutFunction

currentgray showpage

%%Page: 5 5

setgray
0.93 0.93 scale 31 8 translate
initclip (Sun Jan  3 21:51:36 1999) (gnome-hello-7-mdi.c)  DrawFrame gsave 0 setgray fhd 523 800 moveto (       5) s grestore
(remove_cb) InFunction clp
780.00 nl sn (  289) n
 dup 780.00 moveto (applies to) s
770.00 nl sn (  290) n
 770.00 moveto (*/) s
 sf 0 setgray
760.00 nl sn (  291) n
(        ) s
cf fke
(if) s
sf
(\(mdi->active_view\)) s
750.00 nl sn (  292) n
(                gnome_mdi_remove_child\(mdi, ) s
740.00 nl sn (  293) n
(                                                           gnome_mdi_get_child_from_v) s
730.00 nl 36.00 0 rmoveto
(iew\(mdi->active_view\),) s
720.00 nl sn (  294) n
(                                                           FALSE\);) s
710.00 nl sn (  295) n
(}) s
700.00 nl sn (  296) n
690.00 nl sn (  297) n
() s
cf fty
(static) s
sf
( ) s
cf fty
(void) s
sf
( ) s
cf ffu
gsave 0.50 -2.00 rmoveto (add_cb) stringwidth pop 0 currentpoint newpath moveto rlineto closepath 0.01 setlinewidth stroke grestore
(add_cb) s
sf
(\(GtkWidget *w\) {) s
680.00 nl sn (  298) n
(        ) s
cf fty
(static) s
sf
( gint counter = 1;) s
670.00 nl sn (  299) n
(        gchar name[32];) s
660.00 nl sn (  300) n
(        GnomeMDIGenericChild *child;) s
650.00 nl sn (  301) n
640.00 nl sn (  302) n
(        sprintf\(name, ) s
cf fst
("Child %d") s
sf
(, counter\);) s
630.00 nl sn (  303) n
(        ) s
620.00 nl sn (  304) n
(        ) s
cf fke
(if) s
sf
(\(\(child = gnome_mdi_generic_child_new\(name\)\) != NULL\) {) s
610.00 nl sn (  305) n
(                gnome_mdi_generic_child_set_view_creator\(child, my_child_create_view,) s
600.00 nl 36.00 0 rmoveto
( NULL\);) s
590.00 nl sn (  306) n
cf fpr
(#ifdef USE_TEMPLATES) s
sf
580.00 nl sn (  307) n
(                gnome_mdi_child_set_menu_template\(GNOME_MDI_CHILD\(child\), main_child_) s
570.00 nl 36.00 0 rmoveto
(menu\);) s
560.00 nl sn (  308) n
cf fpr
(#else) s
sf
550.00 nl sn (  309) n
(                gnome_mdi_generic_child_set_menu_creator\(child, my_child_create_menus) s
540.00 nl 36.00 0 rmoveto
(, NULL\);) s
530.00 nl sn (  310) n
cf fpr
(#endif) s
sf
( ) s
cf fco 0.75 setgray
(\/)s  currentpoint pop (*) s  pop ( USE_TEMPLATES */) s
 sf 0 setgray
520.00 nl sn (  311) n
(                gnome_mdi_generic_child_set_config_func\(child, my_child_get_config_st) s
510.00 nl 36.00 0 rmoveto
(ring, NULL\);) s
500.00 nl sn (  312) n
(                gnome_mdi_generic_child_set_label_func\(child, my_child_set_label, NUL) s
490.00 nl 36.00 0 rmoveto
(L\);) s
480.00 nl sn (  313) n
470.00 nl sn (  314) n
(                gtk_object_set_user_data\(GTK_OBJECT\(child\), GINT_TO_POINTER\(counter\)\)) s
460.00 nl 36.00 0 rmoveto
(;) s
450.00 nl sn (  315) n
440.00 nl sn (  316) n
(                ) s
cf fco 0.75 setgray
(\/)s  currentpoint pop (*) s  pop ( add the child to MDI */) s
 sf 0 setgray
430.00 nl sn (  317) n
(                gnome_mdi_add_child\(mdi, GNOME_MDI_CHILD\(child\)\);) s
420.00 nl sn (  318) n
(                ) s
410.00 nl sn (  319) n
(                ) s
cf fco 0.75 setgray
(\/)s  currentpoint pop (*) s  pop ( and add a new view of the child */) s
 sf 0 setgray
400.00 nl sn (  320) n
(                gnome_mdi_add_view\(mdi, GNOME_MDI_CHILD\(child\)\);) s
390.00 nl sn (  321) n
380.00 nl sn (  322) n
(                counter++;) s
370.00 nl sn (  323) n
(        }) s
360.00 nl sn (  324) n
(}) s
350.00 nl sn (  325) n
340.00 nl sn (  326) n
() s
cf fty
(static) s
sf
( ) s
cf fty
(void) s
sf
( ) s
cf ffu
gsave 0.50 -2.00 rmoveto (inc_counter_cb) stringwidth pop 0 currentpoint newpath moveto rlineto closepath 0.01 setlinewidth stroke grestore
(inc_counter_cb) s
sf
(\(GtkWidget *w, gpointer user_data\) {) s
330.00 nl sn (  327) n
(        GnomeMDIGenericChild *child = GNOME_MDI_GENERIC_CHILD\(user_data\);) s
320.00 nl sn (  328) n
(        gchar name[32];) s
310.00 nl sn (  329) n
(        gint counter;) s
300.00 nl sn (  330) n
(        GList *view;) s
290.00 nl sn (  331) n
280.00 nl sn (  332) n
(        counter = GPOINTER_TO_INT \(gtk_object_get_user_data\(GTK_OBJECT\(child\)\)\);) s
270.00 nl sn (  333) n
(        counter++;) s
260.00 nl sn (  334) n
(        gtk_object_set_user_data\(GTK_OBJECT\(child\), GINT_TO_POINTER \(counter\)\);) s
250.00 nl sn (  335) n
240.00 nl sn (  336) n
(        sprintf\(name, ) s
cf fst
("Child %d") s
sf
(, counter\);) s
230.00 nl sn (  337) n
(        gnome_mdi_child_set_name\(GNOME_MDI_CHILD\(child\), name\);) s
220.00 nl sn (  338) n
210.00 nl sn (  339) n
(        ) s
cf fco 0.75 setgray
(\/)s  currentpoint pop (*) s  pop ( update views */) s
 sf 0 setgray
200.00 nl sn (  340) n
(        view = GNOME_MDI_CHILD\(child\)->views;) s
190.00 nl sn (  341) n
(        ) s
cf fke
(while) s
sf
(\(view\) {) s
180.00 nl sn (  342) n
(                gtk_label_set_text\(GTK_LABEL\(view->data\), name\);) s
170.00 nl sn (  343) n
(                view = view->next;) s
160.00 nl sn (  344) n
(        }) s
150.00 nl sn (  345) n
(}) s
140.00 nl sn (  346) n
130.00 nl sn (  347) n
() s
cf fty
(static) s
sf
( ) s
cf fty
(void) s
sf
( ) s
cf ffu
gsave 0.50 -2.00 rmoveto (mode_top_cb) stringwidth pop 0 currentpoint newpath moveto rlineto closepath 0.01 setlinewidth stroke grestore
(mode_top_cb) s
sf
(\(GtkWidget *w\) {) s
120.00 nl sn (  348) n
(        gnome_mdi_set_mode\(mdi, GNOME_MDI_TOPLEVEL\);) s
110.00 nl sn (  349) n
(}) s
100.00 nl sn (  350) n
90.00 nl sn (  351) n
() s
cf fty
(static) s
sf
( ) s
cf fty
(void) s
sf
( ) s
cf ffu
gsave 0.50 -2.00 rmoveto (mode_book_cb) stringwidth pop 0 currentpoint newpath moveto rlineto closepath 0.01 setlinewidth stroke grestore
(mode_book_cb) s
sf
(\(GtkWidget *w\) {) s
80.00 nl sn (  352) n
(        gnome_mdi_set_mode\(mdi, GNOME_MDI_NOTEBOOK\);) s
70.00 nl sn (  353) n
(}) s
60.00 nl sn (  354) n
50.00 nl sn (  355) n
() s
cf fty
(static) s
sf
( ) s
cf fty
(void) s
sf
( ) s
cf ffu
gsave 0.50 -2.00 rmoveto (mode_modal_cb) stringwidth pop 0 currentpoint newpath moveto rlineto closepath 0.01 setlinewidth stroke grestore
(mode_modal_cb) s
sf
(\(GtkWidget *w\) {) s
40.00 nl sn (  356) n
(        gnome_mdi_set_mode\(mdi, GNOME_MDI_MODAL\);) s

mark
(remove_view_cb) (4:279)
(remove_cb) (4:287)
(quit_cb) (4:251)
(my_child_set_label) (3:161)
(my_child_new_from_config) (4:225)
(my_child_get_config_string) (3:157)
(my_child_create_view) (2:141)
(my_child_create_menus) (3:188)
(mode_top_cb) (5:347)
(mode_modal_cb) (5:355)
(mode_book_cb) (5:351)
(inc_counter_cb) (5:326)
(cleanup_cb) (4:260)
(add_view_cb) (4:267)
(add_cb) (5:297)
8.00
FunctionBox

(mode_modal_cb) OutFunction

 showpage

%%Page: 6 6

0.93 0.93 scale 31 8 translate
initclip (Sun Jan  3 21:51:36 1999) (gnome-hello-7-mdi.c)  DrawFrame gsave 0 setgray fhd 523 800 moveto (       6) s grestore
(mode_modal_cb) InFunction clp
780.00 nl sn (  357) n
(}) s
770.00 nl sn (  358) n
760.00 nl sn (  359) n
() s
cf fty
(static) s
sf
( ) s
cf fty
(void) s
sf
( ) s
cf ffu
gsave 0.50 -2.00 rmoveto (about_cb) stringwidth pop 0 currentpoint newpath moveto rlineto closepath 0.01 setlinewidth stroke grestore
(about_cb) s
sf
( \(GtkWidget *w\) {) s
750.00 nl sn (  360) n
(        GtkWidget *about;) s
740.00 nl sn (  361) n
(        ) s
cf fty
(const) s
sf
( gchar *authors[] = {) s
730.00 nl sn (  362) n
(                ) s
cf fst
("Jaka Mocnik") s
sf
(,) s
720.00 nl sn (  363) n
(                ) s
cf fst
("Martin Baullig") s
sf
(,) s
710.00 nl sn (  364) n
(                NULL) s
700.00 nl sn (  365) n
(        };) s
690.00 nl sn (  366) n
680.00 nl sn (  367) n
(        about = gnome_about_new \( ) s
cf fst
("The Hello World Gnomified") s
sf
(, VERSION,) s
670.00 nl sn (  368) n
(                                                          ) s
cf fst
("\(C\) 1998 the Free Software) s
660.00 nl 36.00 0 rmoveto
( Foundation") s
sf
(,) s
650.00 nl sn (  369) n
(                                                          authors,) s
640.00 nl sn (  370) n
(                                                          ) s
cf fst
("GNOME is a civilized softw) s
630.00 nl 36.00 0 rmoveto
(are system ") s
sf
620.00 nl sn (  371) n
(                                                          ) s
cf fst
("so we've a \\"hello world\\") s
610.00 nl 36.00 0 rmoveto
( program") s
sf
(,) s
600.00 nl sn (  372) n
(                                                          NULL\);) s
590.00 nl sn (  373) n
(        gtk_widget_show \(about\);) s
580.00 nl sn (  374) n
570.00 nl sn (  375) n
(        ) s
cf fke
(return) s
sf
(;) s
560.00 nl sn (  376) n
(}) s
550.00 nl sn (  377) n
540.00 nl sn (  378) n
() s
cf fty
(static) s
sf
( ) s
cf fty
(void) s
sf
( ) s
cf ffu
gsave 0.50 -2.00 rmoveto (reply_handler) stringwidth pop 0 currentpoint newpath moveto rlineto closepath 0.01 setlinewidth stroke grestore
(reply_handler) s
sf
(\(gint reply, gpointer data\) {) s
530.00 nl sn (  379) n
(        gint *int_data = \(gint *\)data;) s
520.00 nl sn (  380) n
(        *int_data = reply;) s
510.00 nl sn (  381) n
(        gtk_main_quit\(\);) s
500.00 nl sn (  382) n
(}) s
490.00 nl sn (  383) n
480.00 nl sn (  384) n
() s
cf fty
(static) s
sf
( gint ) s
cf ffu
gsave 0.50 -2.00 rmoveto (remove_child_handler) stringwidth pop 0 currentpoint newpath moveto rlineto closepath 0.01 setlinewidth stroke grestore
(remove_child_handler) s
sf
(\(GnomeMDI *mdi, GnomeMDIChild *child\) {) s
470.00 nl sn (  385) n
(        gchar question[128];) s
460.00 nl sn (  386) n
(        gint reply;) s
450.00 nl sn (  387) n
440.00 nl sn (  388) n
(        sprintf\(question, ) s
cf fst
("Do you really want to remove child %d\\n") s
sf
(,) s
430.00 nl sn (  389) n
(                        GPOINTER_TO_INT \(gtk_object_get_user_data\(GTK_OBJECT\(child\)\)\)) s
420.00 nl 36.00 0 rmoveto
(\);) s
410.00 nl sn (  390) n
400.00 nl sn (  391) n
(        gnome_app_question_modal\(gnome_mdi_get_active_window\(mdi\), question,) s
390.00 nl sn (  392) n
(                                                         reply_handler, &reply\);) s
380.00 nl sn (  393) n
370.00 nl sn (  394) n
(        ) s
cf fco 0.75 setgray
(\/)s  currentpoint pop (*) s ( I hope increasing main_level is the proper way to stop an app until) s
360.00 nl sn (  395) n
 360.00 moveto (user had replied to this question... */) s
 sf 0 setgray
350.00 nl sn (  396) n
(        gtk_main\(\);) s
340.00 nl sn (  397) n
330.00 nl sn (  398) n
(        ) s
cf fke
(if) s
sf
(\(reply == 0\)) s
320.00 nl sn (  399) n
(                ) s
cf fke
(return) s
sf
( TRUE;) s
310.00 nl sn (  400) n
300.00 nl sn (  401) n
(        ) s
cf fke
(return) s
sf
( FALSE;) s
290.00 nl sn (  402) n
(}) s
280.00 nl sn (  403) n
270.00 nl sn (  404) n
cf fpr
(#ifndef USE_TEMPLATES) s
sf
260.00 nl sn (  405) n
() s
cf fty
(static) s
sf
( GtkMenuBar *) s
cf ffu
gsave 0.50 -2.00 rmoveto (mdi_create_menus) stringwidth pop 0 currentpoint newpath moveto rlineto closepath 0.01 setlinewidth stroke grestore
(mdi_create_menus) s
sf
(\(GnomeMDI *mdi\) {) s
250.00 nl sn (  406) n
(        GtkWidget *menu, *w, *bar;) s
240.00 nl sn (  407) n
230.00 nl sn (  408) n
(        bar = gtk_menu_bar_new\(\);) s
220.00 nl sn (  409) n
210.00 nl sn (  410) n
(        ) s
cf fco 0.75 setgray
(\/)s  currentpoint pop (*) s  pop ( the File menu */) s
 sf 0 setgray
200.00 nl sn (  411) n
(        menu = gtk_menu_new\(\);) s
190.00 nl sn (  412) n
180.00 nl sn (  413) n
(        w = gtk_menu_item_new_with_label\(_\() s
cf fst
("Add Child") s
sf
(\)\);) s
170.00 nl sn (  414) n
(        gtk_signal_connect\(GTK_OBJECT\(w\), ) s
cf fst
("activate") s
sf
(,) s
160.00 nl sn (  415) n
(                                           GTK_SIGNAL_FUNC\(add_cb\), NULL\);) s
150.00 nl sn (  416) n
(        gtk_widget_show\(w\);) s
140.00 nl sn (  417) n
(        gtk_menu_append\(GTK_MENU\(menu\), w\);) s
130.00 nl sn (  418) n
120.00 nl sn (  419) n
(        w = gtk_menu_item_new_with_label\(_\() s
cf fst
("Remove Child") s
sf
(\)\);) s
110.00 nl sn (  420) n
(        gtk_signal_connect\(GTK_OBJECT\(w\), ) s
cf fst
("activate") s
sf
(,) s
100.00 nl sn (  421) n
(                                           GTK_SIGNAL_FUNC\(remove_cb\), NULL\);) s
90.00 nl sn (  422) n
(        gtk_widget_show\(w\);) s
80.00 nl sn (  423) n
(        gtk_menu_append\(GTK_MENU\(menu\), w\);) s
70.00 nl sn (  424) n
60.00 nl sn (  425) n
(        w = gtk_menu_item_new\(\);) s
50.00 nl sn (  426) n
(        gtk_widget_show\(w\);) s
40.00 nl sn (  427) n
(        gtk_menu_append\(GTK_MENU\(menu\), w\);) s

mark
(reply_handler) (6:378)
(remove_view_cb) (4:279)
(remove_child_handler) (6:384)
(remove_cb) (4:287)
(quit_cb) (4:251)
(my_child_set_label) (3:161)
(my_child_new_from_config) (4:225)
(my_child_get_config_string) (3:157)
(my_child_create_view) (2:141)
(my_child_create_menus) (3:188)
(mode_top_cb) (5:347)
(mode_modal_cb) (5:355)
(mode_book_cb) (5:351)
(mdi_create_menus) (6:405)
(inc_counter_cb) (5:326)
(cleanup_cb) (4:260)
(add_view_cb) (4:267)
(add_cb) (5:297)
(about_cb) (6:359)
8.00
FunctionBox

(mdi_create_menus) OutFunction

 showpage

%%Page: 7 7

0.93 0.93 scale 31 8 translate
initclip (Sun Jan  3 21:51:36 1999) (gnome-hello-7-mdi.c)  DrawFrame gsave 0 setgray fhd 523 800 moveto (       7) s grestore
(mdi_create_menus) InFunction clp
780.00 nl sn (  428) n
770.00 nl sn (  429) n
(        w = gtk_menu_item_new_with_label\(_\() s
cf fst
("Exit") s
sf
(\)\);) s
760.00 nl sn (  430) n
(        gtk_signal_connect\(GTK_OBJECT\(w\), ) s
cf fst
("activate") s
sf
(,) s
750.00 nl sn (  431) n
(                                           GTK_SIGNAL_FUNC\(quit_cb\), NULL\);) s
740.00 nl sn (  432) n
(        gtk_widget_show\(w\);) s
730.00 nl sn (  433) n
(        gtk_menu_append\(GTK_MENU\(menu\), w\);) s
720.00 nl sn (  434) n
710.00 nl sn (  435) n
(        w = gtk_menu_item_new_with_label\(_\() s
cf fst
("File") s
sf
(\)\);) s
700.00 nl sn (  436) n
(        gtk_widget_show\(w\);) s
690.00 nl sn (  437) n
(        gtk_menu_item_set_submenu\(GTK_MENU_ITEM\(w\), menu\);) s
680.00 nl sn (  438) n
670.00 nl sn (  439) n
(        gtk_menu_bar_append\(GTK_MENU_BAR\(bar\), w\);) s
660.00 nl sn (  440) n
650.00 nl sn (  441) n
(        menu = gtk_menu_new\(\);) s
640.00 nl sn (  442) n
(        w = gtk_menu_item_new_with_label\(_\() s
cf fst
("Children") s
sf
(\)\);) s
630.00 nl sn (  443) n
(        gtk_widget_show\(w\);) s
620.00 nl sn (  444) n
(        gtk_menu_item_set_submenu\(GTK_MENU_ITEM\(w\), menu\);) s
610.00 nl sn (  445) n
600.00 nl sn (  446) n
(        gtk_menu_bar_append\(GTK_MENU_BAR\(bar\), w\);) s
590.00 nl sn (  447) n
580.00 nl sn (  448) n
(        ) s
cf fco 0.75 setgray
(\/)s  currentpoint pop (*) s  pop ( the Mode menu */) s
 sf 0 setgray
570.00 nl sn (  449) n
(        menu = gtk_menu_new\(\);) s
560.00 nl sn (  450) n
550.00 nl sn (  451) n
(        w = gtk_menu_item_new_with_label\(_\() s
cf fst
("Notebook") s
sf
(\)\);) s
540.00 nl sn (  452) n
(        gtk_signal_connect\(GTK_OBJECT\(w\), ) s
cf fst
("activate") s
sf
(,) s
530.00 nl sn (  453) n
(                                           GTK_SIGNAL_FUNC\(mode_book_cb\), NULL\);) s
520.00 nl sn (  454) n
(        gtk_widget_show\(w\);) s
510.00 nl sn (  455) n
(        gtk_menu_append\(GTK_MENU\(menu\), w\);) s
500.00 nl sn (  456) n
490.00 nl sn (  457) n
(        w = gtk_menu_item_new_with_label\(_\() s
cf fst
("Toplevel") s
sf
(\)\);) s
480.00 nl sn (  458) n
(        gtk_signal_connect\(GTK_OBJECT\(w\), ) s
cf fst
("activate") s
sf
(,) s
470.00 nl sn (  459) n
(                                           GTK_SIGNAL_FUNC\(mode_top_cb\), NULL\);) s
460.00 nl sn (  460) n
(        gtk_widget_show\(w\);) s
450.00 nl sn (  461) n
(        gtk_menu_append\(GTK_MENU\(menu\), w\);) s
440.00 nl sn (  462) n
430.00 nl sn (  463) n
(        w = gtk_menu_item_new_with_label\(_\() s
cf fst
("Modal") s
sf
(\)\);) s
420.00 nl sn (  464) n
(        gtk_signal_connect\(GTK_OBJECT\(w\), ) s
cf fst
("activate") s
sf
(,) s
410.00 nl sn (  465) n
(                                           GTK_SIGNAL_FUNC\(mode_modal_cb\), NULL\);) s
400.00 nl sn (  466) n
(        gtk_widget_show\(w\);) s
390.00 nl sn (  467) n
(        gtk_menu_append\(GTK_MENU\(menu\), w\);) s
380.00 nl sn (  468) n
370.00 nl sn (  469) n
(        w = gtk_menu_item_new_with_label\(_\() s
cf fst
("MDI Mode") s
sf
(\)\);) s
360.00 nl sn (  470) n
(        gtk_widget_show\(w\);) s
350.00 nl sn (  471) n
(        gtk_menu_item_set_submenu\(GTK_MENU_ITEM\(w\), menu\);) s
340.00 nl sn (  472) n
330.00 nl sn (  473) n
(        gtk_menu_bar_append\(GTK_MENU_BAR\(bar\), w\);) s
320.00 nl sn (  474) n
310.00 nl sn (  475) n
(        ) s
cf fco 0.75 setgray
(\/)s  currentpoint pop (*) s  pop ( the Help menu */) s
 sf 0 setgray
300.00 nl sn (  476) n
(        menu = gtk_menu_new\(\);) s
290.00 nl sn (  477) n
280.00 nl sn (  478) n
(        w = gtk_menu_item_new_with_label\(_\() s
cf fst
("About...") s
sf
(\)\);) s
270.00 nl sn (  479) n
(        gtk_signal_connect\(GTK_OBJECT\(w\), ) s
cf fst
("activate") s
sf
(,) s
260.00 nl sn (  480) n
(                                           GTK_SIGNAL_FUNC\(about_cb\), NULL\);) s
250.00 nl sn (  481) n
(        gtk_widget_show\(w\);) s
240.00 nl sn (  482) n
(        gtk_menu_append\(GTK_MENU\(menu\), w\);) s
230.00 nl sn (  483) n
220.00 nl sn (  484) n
(        w = gtk_menu_item_new_with_label\(_\() s
cf fst
("Help") s
sf
(\)\);) s
210.00 nl sn (  485) n
(        gtk_menu_item_right_justify\(GTK_MENU_ITEM\(w\)\);) s
200.00 nl sn (  486) n
(        gtk_widget_show\(w\);) s
190.00 nl sn (  487) n
(        gtk_menu_item_set_submenu\(GTK_MENU_ITEM\(w\), menu\);) s
180.00 nl sn (  488) n
170.00 nl sn (  489) n
(        gtk_menu_bar_append\(GTK_MENU_BAR\(bar\), w\);) s
160.00 nl sn (  490) n
150.00 nl sn (  491) n
(        ) s
cf fke
(return) s
sf
( GTK_MENU_BAR\(bar\);) s
140.00 nl sn (  492) n
(}  ) s
130.00 nl sn (  493) n
cf fpr
(#endif) s
sf
120.00 nl sn (  494) n
110.00 nl sn (  495) n
() s
cf fty
(void) s
sf
( ) s
cf ffu
gsave 0.50 -2.00 rmoveto (app_created_handler) stringwidth pop 0 currentpoint newpath moveto rlineto closepath 0.01 setlinewidth stroke grestore
(app_created_handler) s
sf
(\(GnomeMDI *mdi, GnomeApp *app\) {) s
100.00 nl sn (  496) n
cf fpr
(#ifndef USE_TEMPLATES) s
sf
90.00 nl sn (  497) n
(        gnome_app_set_menus \(app, mdi_create_menus\(mdi\)\);) s
80.00 nl sn (  498) n
70.00 nl sn (  499) n
(        ) s
cf fco 0.75 setgray
(\/)s  currentpoint pop (*) s ( note that since the same ui info is used many times,) s
60.00 nl sn (  500) n
 dup 60.00 moveto (the ->widget member is not valid. make a copy and) s
50.00 nl sn (  501) n
 dup 50.00 moveto (gtk_object_set_data\(\) it to the app to make it) s
40.00 nl sn (  502) n
 40.00 moveto (accessible by your code. */) s
 sf 0 setgray

mark
(reply_handler) (6:378)
(remove_view_cb) (4:279)
(remove_child_handler) (6:384)
(remove_cb) (4:287)
(quit_cb) (4:251)
(my_child_set_label) (3:161)
(my_child_new_from_config) (4:225)
(my_child_get_config_string) (3:157)
(my_child_create_view) (2:141)
(my_child_create_menus) (3:188)
(mode_top_cb) (5:347)
(mode_modal_cb) (5:355)
(mode_book_cb) (5:351)
(mdi_create_menus) (6:405)
(inc_counter_cb) (5:326)
(cleanup_cb) (4:260)
(app_created_handler) (7:495)
(add_view_cb) (4:267)
(add_cb) (5:297)
(about_cb) (6:359)
8.00
FunctionBox

(app_created_handler) OutFunction

 showpage

%%Page: 8 8

0.93 0.93 scale 31 8 translate
initclip (Sun Jan  3 21:51:36 1999) (gnome-hello-7-mdi.c)  DrawFrame gsave 0 setgray fhd 523 800 moveto (       8) s grestore
(app_created_handler) InFunction clp
780.00 nl sn (  503) n
(        gnome_app_create_toolbar \(app, toolbar_info\);) s
770.00 nl sn (  504) n
cf fpr
(#endif) s
sf
760.00 nl sn (  505) n
(}) s
750.00 nl sn (  506) n
740.00 nl sn (  507) n
() s
cf fty
(int) s
sf
( ) s
cf ffu
gsave 0.50 -2.00 rmoveto (main) stringwidth pop 0 currentpoint newpath moveto rlineto closepath 0.01 setlinewidth stroke grestore
(main) s
sf
(\() s
cf fty
(int) s
sf
( argc, ) s
cf fty
(char) s
sf
( **argv\) {) s
730.00 nl sn (  508) n
720.00 nl sn (  509) n
(        gboolean restart_ok = FALSE;) s
710.00 nl sn (  510) n
700.00 nl sn (  511) n
(        ) s
cf fco 0.75 setgray
(\/)s  currentpoint pop (*) s ( gnome_init\(\) is always called at the beginning of a program.  it) s
690.00 nl sn (  512) n
 dup 690.00 moveto (takes care of initializing both Gtk and GNOME.  It also parses) s
680.00 nl sn (  513) n
 680.00 moveto (the command-line arguments.  */) s
 sf 0 setgray
670.00 nl sn (  514) n
660.00 nl sn (  515) n
(        gnome_init_with_popt_table\() s
cf fst
("gnome-hello-7-mdi") s
sf
(,) s
650.00 nl sn (  516) n
(                                                           VERSION, argc, argv,) s
640.00 nl sn (  517) n
(                                                           prog_options, 0, NULL\);) s
630.00 nl sn (  518) n
620.00 nl sn (  519) n
(        ) s
cf fco 0.75 setgray
(\/)s  currentpoint pop (*) s  pop ( session management init */) s
 sf 0 setgray
610.00 nl sn (  520) n
(        client = gnome_master_client \(\);) s
600.00 nl sn (  521) n
590.00 nl sn (  522) n
(        gtk_signal_connect \(GTK_OBJECT \(client\), ) s
cf fst
("save_yourself") s
sf
(,) s
580.00 nl sn (  523) n
(                                                GTK_SIGNAL_FUNC \(save_state\), argv[0]) s
570.00 nl 36.00 0 rmoveto
(\);) s
560.00 nl sn (  524) n
550.00 nl sn (  525) n
(        mdi = GNOME_MDI\(gnome_mdi_new\() s
cf fst
("gnome-hello-7-mdi") s
sf
(, ) s
cf fst
("GNOME MDI Hello") s
sf
(\)\);) s
540.00 nl sn (  526) n
530.00 nl sn (  527) n
(        ) s
cf fco 0.75 setgray
(\/)s  currentpoint pop (*) s ( set up MDI menus: note that GnomeMDI will copy this struct for its own use) s
520.00 nl 36.00 0 rmoveto
(, so) s
510.00 nl sn (  528) n
 510.00 moveto (main_menu[] will remain intact */) s
 sf 0 setgray
500.00 nl sn (  529) n
cf fpr
(#ifdef USE_TEMPLATES) s
sf
490.00 nl sn (  530) n
(        gnome_mdi_set_menubar_template\(mdi, main_menu\);) s
480.00 nl sn (  531) n
(        gnome_mdi_set_toolbar_template\(mdi, toolbar_info\);) s
470.00 nl sn (  532) n
cf fpr
(#endif) s
sf
460.00 nl sn (  533) n
450.00 nl sn (  534) n
(        ) s
cf fco 0.75 setgray
(\/)s  currentpoint pop (*) s ( and document menu and document list paths \(see gnome-app-helper menu) s
440.00 nl sn (  535) n
 440.00 moveto (insertion routines for details\)  */) s
 sf 0 setgray
430.00 nl sn (  536) n
(        gnome_mdi_set_child_menu_path\(mdi, _\() s
cf fst
("File") s
sf
(\)\);) s
420.00 nl sn (  537) n
(        gnome_mdi_set_child_list_path\(mdi, _\() s
cf fst
("Children/") s
sf
(\)\);) s
410.00 nl sn (  538) n
(  ) s
400.00 nl sn (  539) n
(        ) s
cf fke
(if) s
sf
( \(GNOME_CLIENT_CONNECTED \(client\)\) {) s
390.00 nl sn (  540) n
(                gnome_config_push_prefix \(gnome_client_get_config_prefix \(client\)\);) s
380.00 nl sn (  541) n
(                ) s
370.00 nl sn (  542) n
(                restarted= gnome_config_get_bool \() s
cf fst
("General/restarted=0") s
sf
(\);) s
360.00 nl sn (  543) n
(                ) s
350.00 nl sn (  544) n
(                gnome_config_pop_prefix \(\);) s
340.00 nl sn (  545) n
(        } ) s
cf fke
(else) s
sf
( {) s
330.00 nl sn (  546) n
(                restarted= FALSE;) s
320.00 nl sn (  547) n
(        }       ) s
310.00 nl sn (  548) n
(        ) s
300.00 nl sn (  549) n
(        ) s
cf fco 0.75 setgray
(\/)s  currentpoint pop (*) s  pop ( connect signals */) s
 sf 0 setgray
290.00 nl sn (  550) n
(        gtk_signal_connect\(GTK_OBJECT\(mdi\), ) s
cf fst
("destroy") s
sf
(,) s
280.00 nl sn (  551) n
(                                           GTK_SIGNAL_FUNC\(cleanup_cb\), NULL\);) s
270.00 nl sn (  552) n
(        gtk_signal_connect\(GTK_OBJECT\(mdi\), ) s
cf fst
("remove_child") s
sf
(,) s
260.00 nl sn (  553) n
(                                           GTK_SIGNAL_FUNC\(remove_child_handler\), NUL) s
250.00 nl 36.00 0 rmoveto
(L\);) s
240.00 nl sn (  554) n
(        gtk_signal_connect\(GTK_OBJECT\(mdi\), ) s
cf fst
("app_created") s
sf
(,) s
230.00 nl sn (  555) n
(                                           GTK_SIGNAL_FUNC\(app_created_handler\), NULL) s
220.00 nl 36.00 0 rmoveto
(\);) s
210.00 nl sn (  556) n
(        ) s
200.00 nl sn (  557) n
(        ) s
cf fco 0.75 setgray
(\/)s  currentpoint pop (*) s  pop ( we could also connect handlers to other signals, but since we're lazy, we ) s
190.00 nl 36.00 0 rmoveto
(won't ;\) */) s
 sf 0 setgray
180.00 nl sn (  558) n
170.00 nl sn (  559) n
(        ) s
cf fco 0.75 setgray
(\/)s  currentpoint pop (*) s  pop ( Restore MDI session. */) s
 sf 0 setgray
160.00 nl sn (  560) n
150.00 nl sn (  561) n
(        ) s
cf fke
(if) s
sf
( \(restarted\) {) s
140.00 nl sn (  562) n
(                gnome_config_push_prefix \(gnome_client_get_config_prefix \(client\)\);) s
130.00 nl sn (  563) n
120.00 nl sn (  564) n
(                restart_ok = gnome_mdi_restore_state) s
110.00 nl sn (  565) n
(                        \(mdi, ) s
cf fst
("MDI Session") s
sf
(, my_child_new_from_config\);) s
100.00 nl sn (  566) n
90.00 nl sn (  567) n
(                gnome_config_pop_prefix \(\);) s
80.00 nl sn (  568) n
(        }) s
70.00 nl sn (  569) n
(        ) s
cf fke
(else) s
sf
60.00 nl sn (  570) n
(                ) s
cf fco 0.75 setgray
(\/)s  currentpoint pop (*) s  pop ( open the initial toplevel window */) s
 sf 0 setgray
50.00 nl sn (  571) n
(                gnome_mdi_open_toplevel\(mdi\);) s
40.00 nl sn (  572) n

mark
(reply_handler) (6:378)
(remove_view_cb) (4:279)
(remove_child_handler) (6:384)
(remove_cb) (4:287)
(quit_cb) (4:251)
(my_child_set_label) (3:161)
(my_child_new_from_config) (4:225)
(my_child_get_config_string) (3:157)
(my_child_create_view) (2:141)
(my_child_create_menus) (3:188)
(mode_top_cb) (5:347)
(mode_modal_cb) (5:355)
(mode_book_cb) (5:351)
(mdi_create_menus) (6:405)
(main) (8:507)
(inc_counter_cb) (5:326)
(cleanup_cb) (4:260)
(app_created_handler) (7:495)
(add_view_cb) (4:267)
(add_cb) (5:297)
(about_cb) (6:359)
8.00
FunctionBox

(main) OutFunction

 showpage

%%Page: 9 9

0.93 0.93 scale 31 8 translate
initclip (Sun Jan  3 21:51:36 1999) (gnome-hello-7-mdi.c)  DrawFrame gsave 0 setgray fhd 523 800 moveto (       9) s grestore
(main) InFunction clp
780.00 nl sn (  573) n
(        ) s
cf fco 0.75 setgray
(\/)s  currentpoint pop (*) s  pop ( and here we go... */) s
 sf 0 setgray
770.00 nl sn (  574) n
(        gtk_main\(\);) s
760.00 nl sn (  575) n
750.00 nl sn (  576) n
(        ) s
cf fke
(return) s
sf
( 0;) s
740.00 nl sn (  577) n
(}) s
730.00 nl sn (  578) n
720.00 nl sn (  579) n
cf fco 0.75 setgray
(\/)s  currentpoint pop (*) s  pop ( Session management */) s
 sf 0 setgray
710.00 nl sn (  580) n
700.00 nl sn (  581) n
() s
cf fty
(static) s
sf
( ) s
cf fty
(int) s
sf
( ) s
cf ffu
gsave 0.50 -2.00 rmoveto (save_state) stringwidth pop 0 currentpoint newpath moveto rlineto closepath 0.01 setlinewidth stroke grestore
(save_state) s
sf
( \(GnomeClient        *client,) s
690.00 nl sn (  582) n
(                                           gint                phase,) s
680.00 nl sn (  583) n
(                                           GnomeRestartStyle   save_style,) s
670.00 nl sn (  584) n
(                                           gint                shutdown,) s
660.00 nl sn (  585) n
(                                           GnomeInteractStyle  interact_style,) s
650.00 nl sn (  586) n
(                                           gint                fast,) s
640.00 nl sn (  587) n
(                                           gpointer            client_data\) {) s
630.00 nl sn (  588) n
(        gchar *prefix= gnome_client_get_config_prefix \(client\);) s
620.00 nl sn (  589) n
(        gchar *argv[]= { ) s
cf fst
("rm") s
sf
(, ) s
cf fst
("-r") s
sf
(, NULL };) s
610.00 nl sn (  590) n
(  ) s
600.00 nl sn (  591) n
(        ) s
cf fco 0.75 setgray
(\/)s  currentpoint pop (*) s  pop ( Save the state using gnome-config stuff. */) s
 sf 0 setgray
590.00 nl sn (  592) n
(        gnome_config_push_prefix \(prefix\);) s
580.00 nl sn (  593) n
(  ) s
570.00 nl sn (  594) n
(        gnome_mdi_save_state \(mdi, ) s
cf fst
("MDI Session") s
sf
(\);) s
560.00 nl sn (  595) n
(        ) s
550.00 nl sn (  596) n
(        gnome_config_set_bool \() s
cf fst
("General/restarted") s
sf
(, TRUE\);) s
540.00 nl sn (  597) n
(  ) s
530.00 nl sn (  598) n
(        gnome_config_pop_prefix\(\);) s
520.00 nl sn (  599) n
(        gnome_config_sync\(\);) s
510.00 nl sn (  600) n
500.00 nl sn (  601) n
(        ) s
cf fco 0.75 setgray
(\/)s  currentpoint pop (*) s ( Here is the real SM code. We set the argv to the parameters needed) s
490.00 nl sn (  602) n
 dup 490.00 moveto (to restart/discard the session that we've just saved and call) s
480.00 nl sn (  603) n
 480.00 moveto (the gnome_session_set_*_command to tell the session manager it. */) s
 sf 0 setgray
470.00 nl sn (  604) n
(        argv[2]= gnome_config_get_real_path \(prefix\);) s
460.00 nl sn (  605) n
(        gnome_client_set_discard_command \(client, 3, argv\);) s
450.00 nl sn (  606) n
440.00 nl sn (  607) n
(        ) s
cf fco 0.75 setgray
(\/)s  currentpoint pop (*) s ( Set commands to clone and restart this application.  Note that we) s
430.00 nl sn (  608) n
 dup 430.00 moveto (use the same values for both -- the session management code will) s
420.00 nl sn (  609) n
 dup 420.00 moveto (automatically add whatever magic option is required to set the) s
410.00 nl sn (  610) n
 410.00 moveto (session id on startup.  */) s
 sf 0 setgray
400.00 nl sn (  611) n
(        argv[0]= \(gchar*\) client_data;) s
390.00 nl sn (  612) n
(        gnome_client_set_clone_command \(client, 1, argv\);) s
380.00 nl sn (  613) n
(        gnome_client_set_restart_command \(client, 1, argv\);) s
370.00 nl sn (  614) n
(        ) s
360.00 nl sn (  615) n
(        ) s
cf fke
(return) s
sf
( TRUE;) s
350.00 nl sn (  616) n
(}) s
340.00 nl sn (  617) n

mark
(save_state) (9:581)
(reply_handler) (6:378)
(remove_view_cb) (4:279)
(remove_child_handler) (6:384)
(remove_cb) (4:287)
(quit_cb) (4:251)
(my_child_set_label) (3:161)
(my_child_new_from_config) (4:225)
(my_child_get_config_string) (3:157)
(my_child_create_view) (2:141)
(my_child_create_menus) (3:188)
(mode_top_cb) (5:347)
(mode_modal_cb) (5:355)
(mode_book_cb) (5:351)
(mdi_create_menus) (6:405)
(main) (8:507)
(inc_counter_cb) (5:326)
(cleanup_cb) (4:260)
(app_created_handler) (7:495)
(add_view_cb) (4:267)
(add_cb) (5:297)
(about_cb) (6:359)
8.00
FunctionBox

showpage

%%Pages: 9
